<?xml version="1.0" encoding="utf-8"?>
<!-- Generator: Adobe Illustrator 20.1.0, SVG Export Plug-In . SVG Version: 6.00 Build 0)  -->
<svg version="1.1" id="Layer_1" xmlns="http://www.w3.org/2000/svg" xmlns:xlink="http://www.w3.org/1999/xlink" x="0px" y="0px"
	 viewBox="0 0 886.5 869.8" style="enable-background:new 0 0 886.5 869.8;" xml:space="preserve">
<style type="text/css">
	.st0{fill:#035797;}
</style>
<g transform="matrix(3.59211,0,0,3.59211,-39.5132,-53.8816)">
	<path class="st0" d="M238.4,128.9c-8.2,0-15.3,5.2-18.1,12.4l-67.8-6.7c-0.4-3.5-1.6-6.7-3.4-9.5l40.3-40.7
		c5.8,4.3,13,6.8,20.7,6.8c19.4,0,35-15.7,35-35s-15.7-35-35-35s-35,15.7-35,35c0,7.9,2.6,15.1,7,21L141.8,118
		c-3.6-2.2-7.7-3.5-12.2-3.5c-2.3,0-4.6,0.4-6.7,1l-21.6-37.8c8.2-6.4,13.4-16.4,13.4-27.6c0-19.4-15.7-35.1-35.1-35.1
		c-19.4,0-35.1,15.7-35.1,35.1s15.7,35.1,35.1,35.1c4.5,0,8.8-0.9,12.8-2.4l21.6,37.8c-4.6,4.2-7.5,10.3-7.5,17
		c0,1.2,0.1,2.3,0.3,3.4l-22.3,8.7c-6.7-12.1-19.5-20.3-34.3-20.3c-21.6,0-39.1,17.5-39.1,39.1s17.5,39.1,39.1,39.1
		s39.1-17.5,39.1-39.1c0-3.2-0.4-6.3-1.1-9.3l22.3-8.7c1.8,2.7,4.3,5,7.1,6.7l-25.6,62.5c-0.1,0.2-0.1,0.4-0.2,0.7
		c-0.8-0.1-1.6-0.2-2.4-0.2c-10.2,0-18.5,8.3-18.5,18.5c0,10.2,8.3,18.5,18.5,18.5s18.5-8.3,18.5-18.5c0-5.8-2.7-10.8-6.8-14.2
		c0.2-0.3,0.3-0.5,0.5-0.8l25.8-63.1c0.8,0.1,1.5,0.1,2.3,0.1c4.7,0,9-1.4,12.6-3.7l16.9,22c-4.6,5.6-7.3,12.7-7.3,20.5
		c0,17.9,14.5,32.4,32.4,32.4s32.4-14.5,32.4-32.4S202.1,167,184.2,167c-6.4,0-12.4,1.9-17.4,5.1l-17.4-22.6c0.9-1.4,1.6-3,2.1-4.6
		l67.8,6.7c1.6,9.1,9.5,16.1,19.1,16.1c10.7,0,19.4-8.7,19.4-19.4C257.8,137.6,249.1,128.9,238.4,128.9z M210.1,31.6
		c13.6,0,24.8,11.1,24.8,24.8s-11.1,24.8-24.8,24.8S185.4,70,185.4,56.3S196.5,31.6,210.1,31.6z M79.5,74.9
		c-13.7,0-24.8-11.1-24.8-24.8s11.1-24.8,24.8-24.8s24.8,11.1,24.8,24.8C104.3,63.8,93.2,74.9,79.5,74.9z M50.1,197.3
		c-15.9,0-28.8-12.9-28.8-28.8c0-15.9,12.9-28.8,28.8-28.8c15.9,0,28.8,12.9,28.8,28.8S66,197.3,50.1,197.3z M129.6,150.4
		c-7.1,0-12.9-5.8-12.9-12.9c0-7.1,5.8-12.9,12.9-12.9c7.1,0,12.9,5.8,12.9,12.9C142.4,144.7,136.7,150.4,129.6,150.4z M184.2,177.3
		c12.2,0,22.2,9.9,22.2,22.2c0,12.2-9.9,22.2-22.2,22.2c-12.2,0-22.2-9.9-22.2-22.2C162,187.3,172,177.3,184.2,177.3z"/>
</g>
</svg>
